{
  "customers": [
    {
      "id": "fa378e39-6724-4c68-b34f-ae52c00a83f1",
      "username": "linh.nguyen",
      "email": "linh.nguyen@gmail.com.vn",
      "hashedPassword": "5773961b8fb0e85fa14aec3681647c7d",
      "birthday": "1994-08-19",
      "balance": {
        "remainingBalance": 2000,
        "availableBalance": 2000
      },
      "fullName": "Nguyen Duy Linh",
      "authenticationProvider": "basic",
      "status": "available",
      "role": "admin"
    }
  ]
}