{
  "rabbitMq": {
    "endpoint": "amqp://iwipzayk:NIvQYfQn8gzPHDt0mMDR-sT3Jj7xDwlB@mustang.rmq.cloudamqp.com/iwipzayk",
    "channels": [
      {
        "name": "channel-customer",
        "durable": true,
        "exclusive": false,
        "autoDelete": false,
        "kind": "incoming"
      },
      {
        "name": "channel-order",
        "durable": true,
        "exclusive": false,
        "autoDelete": false,
        "kind": "incoming"
      },
      {
        "name": "channel-product",
        "durable": true,
        "exclusive": false,
        "autoDelete": false,
        "kind": "outgoing"
      }
    ]
  }
}