{
  "Aggregates": [
    {
      "ReRouteKeys": [
        "Customer",
        "Order"
      ],
      "UpstreamPathTemplate": "/api/customer/load-customer-orders",
      "Aggregator": "LoadCustomerOrdersAggregator"
    }
  ],
  "ReRoutes": [
    {
      "DownstreamPathTemplate": "/api/customer/search",
      "DownstreamScheme": "http",
      "UpstreamPathTemplate": "/api/customer/search",
      "UpstreamHttpMethod": [ "POST" ],
      "DownstreamHostAndPorts": [
        {
          "Host": "localhost",
          "Port": 62744
        }
      ],
      "Key": "Customer"
    },
    {
      "DownstreamPathTemplate": "/api/order/search",
      "DownstreamScheme": "http",
      "UpstreamPathTemplate": "/api/order/search",
      "UpstreamHttpMethod": [ "GET" ],
      "DownstreamHostAndPorts": [
        {
          "Host": "localhost",
          "Port": 62724
        }
      ],
      "Key": "Order"
    },
    {
      "DownstreamPathTemplate": "/connect/token",
      "DownstreamScheme": "http",
      "UpstreamPathTemplate": "/connect/token",
      "UpstreamHttpMethod": ["POST"],
      "DownstreamHostAndPorts": [
        {
          "Host": "localhost",
          "Port": 62744
        }
      ]
    }
  ]
}