{
  "rabbitMq": {
    "main": {
      "hostName": "mustang-01.rmq.cloudamqp.com",
      "password": "NIvQYfQn8gzPHDt0mMDR-sT3Jj7xDwlB",
      "endpoint": "amqp://iwipzayk:NIvQYfQn8gzPHDt0mMDR-sT3Jj7xDwlB@mustang.rmq.cloudamqp.com/iwipzayk",
      "outgoingChannels": [
        {
          "name": "channel-ms-order",
          "durable": true,
          "exclusive": false,
          "autoDelete": false
        },
        {
          "name": "channel-ms-product",
          "durable": true,
          "exclusive": false,
          "autoDelete": false
        }
      ],
      "incomingChannels": [
        {
          "name": "channel-ms-customer",
          "durable": true,
          "exclusive": false,
          "autoDelete": false
        }
      ]
    }
  }
}
